{"failedCount":1,"prefixedPath":"classpath:learnings\/features\/GetCallDemo.feature","packageQualifiedName":"learnings.features.GetCallDemo","loopIndex":-1,"relativePath":"learnings\/features\/GetCallDemo.feature","scenarioResults":[{"sectionIndex":0,"stepResults":[{"result":{"nanos":1773791,"startTime":1700741742407,"endTime":1700741742409,"millis":1.773791,"status":"passed"},"step":{"background":true,"line":5,"prefix":"*","index":0,"text":"url 'https:\/\/reqres.in\/api\/'"},"stepLog":"17:45:42.360 karate.env system property was: null \n"},{"result":{"nanos":918926,"startTime":1700741742412,"endTime":1700741742413,"millis":0.918926,"status":"passed"},"step":{"line":8,"prefix":"Given","index":0,"text":"path \"users\/\""}},{"result":{"nanos":3250461,"startTime":1700741742413,"endTime":1700741742416,"millis":3.250461,"status":"passed"},"step":{"line":9,"prefix":"And","index":1,"text":"param page = \"2\""}},{"result":{"nanos":857262597,"startTime":1700741742417,"endTime":1700741743274,"millis":857.262597,"status":"passed"},"step":{"line":10,"prefix":"When","index":2,"text":"method GET"},"stepLog":"17:45:42.691 request:\n1 > GET https:\/\/reqres.in\/api\/users?page=2\n1 > Host: reqres.in\n1 > Connection: Keep-Alive\n1 > User-Agent: Apache-HttpClient\/4.5.14 (Java\/11.0.18)\n1 > Accept-Encoding: gzip,deflate\n\n\n17:45:43.271 response time in milliseconds: 574\n1 < 200\n1 < Date: Thu, 23 Nov 2023 12:15:43 GMT\n1 < Content-Type: application\/json; charset=utf-8\n1 < Transfer-Encoding: chunked\n1 < Connection: keep-alive\n1 < Report-To: {\"group\":\"heroku-nel\",\"max_age\":3600,\"endpoints\":[{\"url\":\"https:\/\/nel.heroku.com\/reports?ts=1700725734&sid=c4c9725f-1ab0-44d8-820f-430df2718e11&s=D5%2B%2FHHhot3OWoGbK02Yq1buac76gew5owUr0nXf15Vw%3D\"}]}\n1 < Reporting-Endpoints: heroku-nel=https:\/\/nel.heroku.com\/reports?ts=1700725734&sid=c4c9725f-1ab0-44d8-820f-430df2718e11&s=D5%2B%2FHHhot3OWoGbK02Yq1buac76gew5owUr0nXf15Vw%3D\n1 < Nel: {\"report_to\":\"heroku-nel\",\"max_age\":3600,\"success_fraction\":0.005,\"failure_fraction\":0.05,\"response_headers\":[\"Via\"]}\n1 < X-Powered-By: Express\n1 < Access-Control-Allow-Origin: *\n1 < Etag: W\/\"406-ut0vzoCuidvyMf8arZpMpJ6ZRDw\"\n1 < Via: 1.1 vegur\n1 < Cache-Control: max-age=14400\n1 < CF-Cache-Status: HIT\n1 < Age: 1607\n1 < Vary: Accept-Encoding\n1 < Server: cloudflare\n1 < CF-RAY: 82a956d6fa2da03b-SIN\n{\"page\":2,\"per_page\":6,\"total\":12,\"total_pages\":2,\"data\":[{\"id\":7,\"email\":\"michael.lawson@reqres.in\",\"first_name\":\"Michael\",\"last_name\":\"Lawson\",\"avatar\":\"https:\/\/reqres.in\/img\/faces\/7-image.jpg\"},{\"id\":8,\"email\":\"lindsay.ferguson@reqres.in\",\"first_name\":\"Lindsay\",\"last_name\":\"Ferguson\",\"avatar\":\"https:\/\/reqres.in\/img\/faces\/8-image.jpg\"},{\"id\":9,\"email\":\"tobias.funke@reqres.in\",\"first_name\":\"Tobias\",\"last_name\":\"Funke\",\"avatar\":\"https:\/\/reqres.in\/img\/faces\/9-image.jpg\"},{\"id\":10,\"email\":\"byron.fields@reqres.in\",\"first_name\":\"Byron\",\"last_name\":\"Fields\",\"avatar\":\"https:\/\/reqres.in\/img\/faces\/10-image.jpg\"},{\"id\":11,\"email\":\"george.edwards@reqres.in\",\"first_name\":\"George\",\"last_name\":\"Edwards\",\"avatar\":\"https:\/\/reqres.in\/img\/faces\/11-image.jpg\"},{\"id\":12,\"email\":\"rachel.howell@reqres.in\",\"first_name\":\"Rachel\",\"last_name\":\"Howell\",\"avatar\":\"https:\/\/reqres.in\/img\/faces\/12-image.jpg\"}],\"support\":{\"url\":\"https:\/\/reqres.in\/#support-heading\",\"text\":\"To keep ReqRes free, contributions towards server costs are appreciated!\"}}\n\n"},{"result":{"nanos":41238,"startTime":1700741743274,"endTime":1700741743274,"millis":0.041238,"status":"passed"},"step":{"line":11,"prefix":"Then","index":3,"text":"status 200"}},{"result":{"nanos":32905806,"errorMessage":"match failed: EQUALS\n  $ | data types don't match (NUMBER:STRING)\n  2\n  '2'\n\nclasspath:learnings\/features\/GetCallDemo.feature:12","startTime":1700741743274,"endTime":1700741743307,"millis":32.905806,"status":"failed"},"step":{"line":12,"prefix":"Then","index":4,"text":"match response.page == \"2\""},"stepLog":"17:45:43.318 classpath:learnings\/features\/GetCallDemo.feature:12\nThen match response.page == \"2\"\nmatch failed: EQUALS\n  $ | data types don't match (NUMBER:STRING)\n  2\n  '2'\n\nclasspath:learnings\/features\/GetCallDemo.feature:12\n"}],"line":7,"description":"","durationMillis":896.152819,"failed":true,"error":"match failed: EQUALS\n  $ | data types don't match (NUMBER:STRING)\n  2\n  '2'\n\nclasspath:learnings\/features\/GetCallDemo.feature:12","tags":["debug"],"executorName":"pool-2-thread-1","name":"Get the details of User 2","startTime":1700741742127,"refId":"[1:7]","endTime":1700741743318,"exampleIndex":-1}],"callDepth":0,"name":"Get the details of User 2","description":"","resultDate":"2023-11-23 05:45:43 PM","durationMillis":896.152819,"passedCount":0}